…
## 3.1 简介

本章将用dplyr 包来转换数据，并介绍一个新的数据集：2013 年从纽约市出发的航班信息。

### 3.1.1 准备工作

本章将重点讨论如何使用tidyverse 中的另一个核心R 包——dplyr 包。我们使用nycflights13 包中的数据来说明dplyr 包的核心理念，并使用ggplot2 来帮助我们理解数据。

### 3.1.2 nycflights13

使用nycflights13::flights。这个数据框包含了2013 年从纽约市出发的所有336 776 次航班的信息。该数据来自于美国交通统计局，可以使用?flights 查看其说明文档：

```
> flights
# A tibble: 336,776 x 19
    year month   day dep_time sched_dep_time dep_delay
   <int> <int> <int>    <int>          <int>     <dbl>
 1  2013     1     1      517            515         2
 2  2013     1     1      533            529         4
 3  2013     1     1      542            540         2
 4  2013     1     1      544            545        -1
 5  2013     1     1      554            600        -6
 6  2013     1     1      554            558        -4
 7  2013     1     1      555            600        -5
 8  2013     1     1      557            600        -3
 9  2013     1     1      557            600        -3
10  2013     1     1      558            600        -2
# ... with 336,766 more rows, and 13 more variables:
#   arr_time <int>, sched_arr_time <int>, arr_delay <dbl>,
#   carrier <chr>, flight <int>, tailnum <chr>, origin <chr>,
#   dest <chr>, air_time <dbl>, distance <dbl>, hour <dbl>,
#   minute <dbl>, time_hour <dttm>
```
…
前面5 个函数的工作方式都是相同的。
(1) 第一个参数是一个数据框。
(2) 随后的参数使用变量名称（不带引号）描述了在数据框上进行的操作。
(3) 输出结果是一个新数据框。
利用以上这些属性可以很轻松地将多个简单步骤链接起来，从而得到非常复杂的结果。接下来我们将深入了解，看看如何使用这些操作。

## 3.2　使用filter()筛选行

filter() 函数可以基于观测的值筛选出一个观测子集。第一个参数是数据框名称，第二个参数以及随后的参数是用来筛选数据框的表达式。例如，我们可以使用以下代码筛选出1月1 日的所有航班：

```
> jan1 <-filter(flights, month == 1, day == 1)
> jan1
# A tibble: 842 x 19
    year month   day dep_time sched_dep_time dep_delay
   <int> <int> <int>    <int>          <int>     <dbl>
 1  2013     1     1      517            515         2
 2  2013     1     1      533            529         4
 3  2013     1     1      542            540         2
 4  2013     1     1      544            545        -1
 5  2013     1     1      554            600        -6
 6  2013     1     1      554            558        -4
 7  2013     1     1      555            600        -5
 8  2013     1     1      557            600        -3
 9  2013     1     1      557            600        -3
10  2013     1     1      558            600        -2
# ... with 832 more rows, and 13 more variables:
#   arr_time <int>, sched_arr_time <int>, arr_delay <dbl>,
#   carrier <chr>, flight <int>, tailnum <chr>, origin <chr>,
#   dest <chr>, air_time <dbl>, distance <dbl>, hour <dbl>,
#   minute <dbl>, time_hour <dttm>
```
…
## 3.3 使用arrange()排列行

arrange() 函数的工作方式与filter() 函数非常相似，但前者不是选择行，而是改变行的顺序。它接受一个数据框和一组作为排序依据的列名（或者更复杂的表达式）作为参数。如果列名不只一个，那么就使用后面的列在前面排序的基础上继续排序：

```
> arrange(flights, year, month, day)
# A tibble: 336,776 x 19
    year month   day dep_time sched_dep_time dep_delay
   <int> <int> <int>    <int>          <int>     <dbl>
 1  2013     1     1      517            515         2
 2  2013     1     1      533            529         4
 3  2013     1     1      542            540         2
 4  2013     1     1      544            545        -1
 5  2013     1     1      554            600        -6
 6  2013     1     1      554            558        -4
 7  2013     1     1      555            600        -5
 8  2013     1     1      557            600        -3
 9  2013     1     1      557            600        -3
10  2013     1     1      558            600        -2
# ... with 336,766 more rows, and 13 more variables:
#   arr_time <int>, sched_arr_time <int>, arr_delay <dbl>,
#   carrier <chr>, flight <int>, tailnum <chr>, origin <chr>,
#   dest <chr>, air_time <dbl>, distance <dbl>, hour <dbl>,
#   minute <dbl>, time_hour <dttm>
```

使用desc() 可以按列进行降序排序：

```
> arrange(flights, desc(arr_delay))
# A tibble: 336,776 x 19
    year month   day dep_time sched_dep_time dep_delay
   <int> <int> <int>    <int>          <int>     <dbl>
 1  2013     1     9      641            900      1301
 2  2013     6    15     1432           1935      1137
 3  2013     1    10     1121           1635      1126
 4  2013     9    20     1139           1845      1014
 5  2013     7    22      845           1600      1005
 6  2013     4    10     1100           1900       960
 7  2013     3    17     2321            810       911
 8  2013     7    22     2257            759       898
 9  2013    12     5      756           1700       896
10  2013     5     3     1133           2055       878
# ... with 336,766 more rows, and 13 more variables:
#   arr_time <int>, sched_arr_time <int>, arr_delay <dbl>,
#   carrier <chr>, flight <int>, tailnum <chr>, origin <chr>,
#   dest <chr>, air_time <dbl>, distance <dbl>, hour <dbl>,
#   minute <dbl>, time_hour <dttm>
```
…
## 3.4 使用select()选择列

如今，数据集有几百甚至几千个变量已经司空见惯。这种情况下，如何找出真正感兴趣的那些变量经常是我们面临的第一个挑战。通过基于变量名的操作，select() 函数可以让你快速生成一个有用的变量子集。

```
# 按名称选择列
> select(flights, year, month, day)
# A tibble: 336,776 x 3
    year month   day
   <int> <int> <int>
 1  2013     1     1
 2  2013     1     1
 3  2013     1     1
 4  2013     1     1
 5  2013     1     1
 6  2013     1     1
 7  2013     1     1
 8  2013     1     1
 9  2013     1     1
10  2013     1     1
# ... with 336,766 more rows
# 选择“year”和“day”之间的所有列
> select(flights, year:day)
# A tibble: 336,776 x 3
    year month   day
   <int> <int> <int>
 1  2013     1     1
 2  2013     1     1
 3  2013     1     1
 4  2013     1     1
 5  2013     1     1
 6  2013     1     1
 7  2013     1     1
 8  2013     1     1
 9  2013     1     1
10  2013     1     1
# ... with 336,766 more rows
# 选择不在“year”和“day”之间的列
> select(flights, -(year:day))
# A tibble: 336,776 x 16
   dep_time sched_dep_time dep_delay arr_time sched_arr_time
      <int>          <int>     <dbl>    <int>          <int>
 1      517            515         2      830            819
 2      533            529         4      850            830
 3      542            540         2      923            850
 4      544            545        -1     1004           1022
 5      554            600        -6      812            837
 6      554            558        -4      740            728
 7      555            600        -5      913            854
 8      557            600        -3      709            723
 9      557            600        -3      838            846
10      558            600        -2      753            745
# ... with 336,766 more rows, and 11 more variables:
#   arr_delay <dbl>, carrier <chr>, flight <int>,
#   tailnum <chr>, origin <chr>, dest <chr>, air_time <dbl>,
#   distance <dbl>, hour <dbl>, minute <dbl>,
#   time_hour <dttm>
```

还可以在select () 函数中使用一些辅助函数。
• starts_with("abc")：匹配以“abc”开头的名称。
• ends_with("xyz")：匹配以“xyz”结尾的名称。
• contains("ijk")：匹配包含“ijk”的名称。
• matches("(.)\\1")：选择匹配正则表达式的那些变量。这个正则表达式会匹配名称中有重复字符的变量。你将在第10 章中学习到更多关于正则表达式的知识。
• num_range("x", 1:3)：匹配x1、x2 和x3。

使用select() 函数的变体rename() 函数来重命名变量，以保留所有未明确提及的变量：

```
> rename(flights, tail_num = tailnum)
# A tibble: 336,776 x 19
    year month   day dep_time sched_dep_time dep_delay
   <int> <int> <int>    <int>          <int>     <dbl>
 1  2013     1     1      517            515         2
 2  2013     1     1      533            529         4
 3  2013     1     1      542            540         2
 4  2013     1     1      544            545        -1
 5  2013     1     1      554            600        -6
 6  2013     1     1      554            558        -4
 7  2013     1     1      555            600        -5
 8  2013     1     1      557            600        -3
 9  2013     1     1      557            600        -3
10  2013     1     1      558            600        -2
# ... with 336,766 more rows, and 13 more variables:
#   arr_time <int>, sched_arr_time <int>, arr_delay <dbl>,
#   carrier <chr>, flight <int>, tail_num <chr>,
#   origin <chr>, dest <chr>, air_time <dbl>, distance <dbl>,
#   hour <dbl>, minute <dbl>, time_hour <dttm>
```

另一种用法是将select() 函数和everything() 辅助函数结合起来使用。当想要将几个变量移到数据框开头时，这种用法非常奏效

```
> select(flights, time_hour, air_time, everything())
# A tibble: 336,776 x 19
   time_hour           air_time  year month   day dep_time
   <dttm>                 <dbl> <int> <int> <int>    <int>
 1 2013-01-01 05:00:00      227  2013     1     1      517
 2 2013-01-01 05:00:00      227  2013     1     1      533
 3 2013-01-01 05:00:00      160  2013     1     1      542
 4 2013-01-01 05:00:00      183  2013     1     1      544
 5 2013-01-01 06:00:00      116  2013     1     1      554
 6 2013-01-01 05:00:00      150  2013     1     1      554
 7 2013-01-01 06:00:00      158  2013     1     1      555
 8 2013-01-01 06:00:00       53  2013     1     1      557
 9 2013-01-01 06:00:00      140  2013     1     1      557
10 2013-01-01 06:00:00      138  2013     1     1      558
# ... with 336,766 more rows, and 13 more variables:
#   sched_dep_time <int>, dep_delay <dbl>, arr_time <int>,
#   sched_arr_time <int>, arr_delay <dbl>, carrier <chr>,
#   flight <int>, tailnum <chr>, origin <chr>, dest <chr>,
#   distance <dbl>, hour <dbl>, minute <dbl>
```
…
mutate() 总是将新列添加在数据集的最后，因此我们需要先创建一个更狭窄的数据集，以便能够看到新变量。记住，当使用RStudio 时，查看所有列的最简单的方法就是使用View()函数：

```
flights_sml <- select(flights,
                      year:day,
                      ends_with("delay"),
                      distance,
                      air_time
)
mutate(flights_sml,
       gain = arr_delay - dep_delay,
       speed = distance / air_time * 60
)
# A tibble: 336,776 x 9
    year month   day dep_delay arr_delay distance air_time
   <int> <int> <int>     <dbl>     <dbl>    <dbl>    <dbl>
 1  2013     1     1         2        11     1400      227
 2  2013     1     1         4        20     1416      227
 3  2013     1     1         2        33     1089      160
 4  2013     1     1        -1       -18     1576      183
 5  2013     1     1        -6       -25      762      116
 6  2013     1     1        -4        12      719      150
 7  2013     1     1        -5        19     1065      158
 8  2013     1     1        -3       -14      229       53
 9  2013     1     1        -3        -8      944      140
10  2013     1     1        -2         8      733      138
# ... with 336,766 more rows, and 2 more variables:
#   gain <dbl>, speed <dbl>
```

一旦创建，新列就可以立即使用：

```
> mutate(flights_sml,
+        gain = arr_delay - dep_delay,
+        hours = air_time / 60,
+        gain_per_hour = gain / hours
+ )
# A tibble: 336,776 x 10
    year month   day dep_delay arr_delay distance air_time
   <int> <int> <int>     <dbl>     <dbl>    <dbl>    <dbl>
 1  2013     1     1         2        11     1400      227
 2  2013     1     1         4        20     1416      227
 3  2013     1     1         2        33     1089      160
 4  2013     1     1        -1       -18     1576      183
 5  2013     1     1        -6       -25      762      116
 6  2013     1     1        -4        12      719      150
 7  2013     1     1        -5        19     1065      158
 8  2013     1     1        -3       -14      229       53
 9  2013     1     1        -3        -8      944      140
10  2013     1     1        -2         8      733      138
# ... with 336,766 more rows, and 3 more variables:
#   gain <dbl>, hours <dbl>, gain_per_hour <dbl>
```

如果只想保留新变量，可以使用transmute() 函数：

```
> transmute(flights,
+           gain = arr_delay - dep_delay,
+           hours = air_time / 60,
+           gain_per_hour = gain / hours
+ )
# A tibble: 336,776 x 3
    gain hours gain_per_hour
   <dbl> <dbl>         <dbl>
 1     9 3.78           2.38
 2    16 3.78           4.23
 3    31 2.67          11.6 
 4   -17 3.05          -5.57
 5   -19 1.93          -9.83
 6    16 2.5            6.4 
 7    24 2.63           9.11
 8   -11 0.883        -12.5 
 9    -5 2.33          -2.14
10    10 2.3            4.35
# ... with 336,766 more rows
```
…
**算术运算符：+、-、*、/、^**  

   它们都是向量化的，使用所谓的“循环法则”。如果一个参数比另一个参数短，那么前者会自动扩展到同样的长度。当某个参数是单个数值时，这种方式是最有效的：air_time / 60、hours * 60 + minute 等。
算术运算符的另一用途是与我们后面将很快学到的聚集函数结合起来使用。例如，x /sum(x) 可以计算出各个分量在总数中的比例，y – mean(y) 可以计算出分量与均值之间的差值。

**模运算符：%/% 和%%**
    %/%（整数除法）和%%（求余）满足x == y * (x %/% y) + (x %% y)。模运算非常好用，因为它可以拆分整数。例如，在航班数据集中，你可以根据dep_time 计算出hour和minute：

```
> transmute(flights,
+           dep_time,
+           hour = dep_time %/% 100,
+           minute = dep_time %% 100
+ )
# A tibble: 336,776 x 3
   dep_time  hour minute
      <int> <dbl>  <dbl>
 1      517     5     17
 2      533     5     33
 3      542     5     42
 4      544     5     44
 5      554     5     54
 6      554     5     54
 7      555     5     55
 8      557     5     57
 9      557     5     57
10      558     5     58
# ... with 336,766 more rows
```
…
## 3.6 使用summarize()进行分组摘要

最后一个核心函数是summarize()，它可以将数据框折叠成一行。group_by() 可以将分析单位从整个数据集更改为单个分组。接下来，在分组后的数据框上使用dplyr 函数时，它们会自动地应用到每个分组。例如，如果对按日期分组的一个数据框应用与上面完全相同的代码，那么我们就可以得到每日平均延误时间：

```
> by_day <- group_by(flights, year, month, day)
> summarize(by_day, delay = mean(dep_delay, na.rm = TRUE))
`summarise()` regrouping output by 'year', 'month' (override with `.groups` argument)
# A tibble: 365 x 4
# Groups:   year, month [12]
    year month   day delay
   <int> <int> <int> <dbl>
 1  2013     1     1 11.5 
 2  2013     1     2 13.9 
 3  2013     1     3 11.0 
 4  2013     1     4  8.95
 5  2013     1     5  5.73
 6  2013     1     6  7.15
 7  2013     1     7  5.42
 8  2013     1     8  2.55
 9  2013     1     9  2.28
10  2013     1    10  2.84
# ... with 355 more rows
```
…
使用这种方法时，x %>% f(y) 会转换为f(x, y)，x %>% f(y) %>% g(z) 会转换为g(f(x,y), z)，以此类推。你可以使用管道重写多种操作，将其变为能够从左到右或从上到下阅读。

### 3.6.2 缺失值

在前面使用了参数na.rm,如果没有设置这个参数，会发生什么情况呢？

```
>by_day <- group_by(flights, year, month, day)
>summarize(by_day, delay = mean(dep_delay))
## 使用管道
> flights %>%
+   group_by(year, month, day) %>%
+   summarize(mean = mean(dep_delay))
`summarise()` regrouping output by 'year', 'month' (override with `.groups` argument)
# A tibble: 365 x 4
# Groups:   year, month [12]
    year month   day  mean
   <int> <int> <int> <dbl>
 1  2013     1     1    NA
 2  2013     1     2    NA
 3  2013     1     3    NA
 4  2013     1     4    NA
 5  2013     1     5    NA
 6  2013     1     6    NA
 7  2013     1     7    NA
 8  2013     1     8    NA
 9  2013     1     9    NA
10  2013     1    10    NA
# ... with 355 more rows
```

这是因为聚合函数遵循缺失值的一般规则：如果输入中有缺失值，那么输出也会是缺失值。好在所有聚合函数都有一个na.rm 参数，它可以在计算前除去缺失值：

```
> flights %>%
+   group_by(year, month, day) %>%
+   summarize(mean = mean(dep_delay,na.rm= TRUE))
`summarise()` regrouping output by 'year', 'month' (override with `.groups` argument)
# A tibble: 365 x 4
# Groups:   year, month [12]
    year month   day  mean
   <int> <int> <int> <dbl>
 1  2013     1     1 11.5 
 2  2013     1     2 13.9 
 3  2013     1     3 11.0 
 4  2013     1     4  8.95
 5  2013     1     5  5.73
 6  2013     1     6  7.15
 7  2013     1     7  5.42
 8  2013     1     8  2.55
 9  2013     1     9  2.28
10  2013     1    10  2.84
# ... with 355 more rows
```

在这个示例中，缺失值表示取消的航班，我们也可以通过先去除取消的航班来解决缺失值
问题。保存这个数据集，以便我们可以在接下来的几个示例中继续使用：

```
not_cancelled <- flights %>%
 filter(!is.na(dep_delay), !is.na(arr_delay))
> not_cancelled %>%
+   group_by(year, month, day) %>%
+   summarize(mean = mean(dep_delay))
`summarise()` regrouping output by 'year', 'month' (override with `.groups` argument)
# A tibble: 365 x 4
# Groups:   year, month [12]
    year month   day  mean
   <int> <int> <int> <dbl>
 1  2013     1     1 11.4 
 2  2013     1     2 13.7 
 3  2013     1     3 10.9 
 4  2013     1     4  8.97
 5  2013     1     5  5.73
 6  2013     1     6  7.15
 7  2013     1     7  5.42
 8  2013     1     8  2.56
 9  2013     1     9  2.30
10  2013     1    10  2.84
# ... with 355 more rows
```
…
接下来，画一张航班数量和平均延误时间的散点图，以便获得更深刻的理解：

```
delays <- not_cancelled %>%    
  group_by(tailnum) %>%  #--根据tailnum对not_cancelled分组
  summarize(
    delay = mean(arr_delay, na.rm = TRUE), 
    n = n()  #--根据每个组求arr_delay的平均值并计数
  )
# A tibble: 4,037 x 3
   tailnum  delay     n
   <chr>    <dbl> <int>
 1 D942DN  31.5       4
 2 N0EGMQ   9.98    352
 3 N10156  12.7     145
 4 N102UW   2.94     48
 5 N103US  -6.93     46
 6 N104UW   1.80     46
 7 N10575  20.7     269
 8 N105UW  -0.267    45
 9 N107US  -5.73     41
10 N108UW  -1.25     60
# ... with 4,027 more rows
…
我们已经使用过mean(x)，但median(x) 也非常有用。均值是总数除以个数；中位数则
是这样一个值：50% 的x 大于它，同时50% 的x 小于它。

```
> not_cancelled %>%
+   group_by(year, month, day) %>%
+   summarize(
+     # 平均延误时间：
+     avg_delay1 = mean(arr_delay),
+     # 平均正延误时间：
+     avg_delay2 = mean(arr_delay[arr_delay > 0])
+   )
`summarise()` regrouping output by 'year', 'month' (override with `.groups` argument)
# A tibble: 365 x 5
# Groups:   year, month [12]
    year month   day avg_delay1 avg_delay2
   <int> <int> <int>      <dbl>      <dbl>
 1  2013     1     1     12.7         32.5
 2  2013     1     2     12.7         32.0
 3  2013     1     3      5.73        27.7
 4  2013     1     4     -1.93        28.3
 5  2013     1     5     -1.53        22.6
 6  2013     1     6      4.24        24.4
 7  2013     1     7     -4.95        27.8
 8  2013     1     8     -3.23        20.8
 9  2013     1     9     -0.264       25.6
10  2013     1    10     -5.90        27.3
# ... with 355 more rows
```

**分散程度度量：sd(x)、IQR(x) 和mad(x)**

均方误差（又称标准误差，standard deviation，sd）是分散程度的标准度量方式。四分位距IQR() 和绝对中位差mad(x) 基本等价，更适合有离群点的情况：

```
> # 为什么到某些目的地的距离比到其他目的地更多变？
> not_cancelled %>%
+   group_by(dest) %>%
+   summarize(distance_sd = sd(distance)) %>%
+   arrange(desc(distance_sd))
`summarise()` ungrouping output (override with `.groups` argument)
# A tibble: 104 x 2
   dest  distance_sd
   <chr>       <dbl>
 1 EGE         10.5 
 2 SAN         10.4 
 3 SFO         10.2 
 4 HNL         10.0 
 5 SEA          9.98
 6 LAS          9.91
 7 PDX          9.87
 8 PHX          9.86
 9 LAX          9.66
10 IND          9.46
# ... with 94 more rows
```

**秩的度量：min(x)、quantile(x, 0.25) 和max(x)**

分位数是中位数的扩展。例如，quantile(x, 0.25) 会找出x 中按从小到大顺序大于前25% 而小于后75% 的值：

```
> # 每天最早和最晚的航班何时出发？
> not_cancelled %>%
+   group_by(year, month, day) %>%
+   summarize(
+     first = min(dep_time),
+     last = max(dep_time)
+   )
`summarise()` regrouping output by 'year', 'month' (override with `.groups` argument)
# A tibble: 365 x 5
# Groups:   year, month [12]
    year month   day first  last
   <int> <int> <int> <int> <int>
 1  2013     1     1   517  2356
 2  2013     1     2    42  2354
 3  2013     1     3    32  2349
 4  2013     1     4    25  2358
 5  2013     1     5    14  2357
 6  2013     1     6    16  2355
 7  2013     1     7    49  2359
 8  2013     1     8   454  2351
 9  2013     1     9     2  2252
10  2013     1    10     3  2320
# ... with 355 more rows
```

**定位度量：first(x)、nth(x, 2) 和last(x)**

这几个函数的作用与x[1]、x[2] 和x[length(x)] 相同，只是当定位不存在时（比如尝试从只有两个元素的分组中得到第三个元素），前者允许你设置一个默认值。例如，我们可以找出每天最早和最晚出发的航班：

```
> not_cancelled %>%
+   group_by(year, month, day) %>%
+   summarize(
+     first_dep = first(dep_time),
+     last_dep = last(dep_time)
+   )
`summarise()` regrouping output by 'year', 'month' (override with `.groups` argument)
# A tibble: 365 x 5
# Groups:   year, month [12]
    year month   day first_dep last_dep
   <int> <int> <int>     <int>    <int>
 1  2013     1     1       517     2356
 2  2013     1     2        42     2354
 3  2013     1     3        32     2349
 4  2013     1     4        25     2358
 5  2013     1     5        14     2357
 6  2013     1     6        16     2355
 7  2013     1     7        49     2359
 8  2013     1     8       454     2351
 9  2013     1     9         2     2252
10  2013     1    10         3     2320
# ... with 355 more rows
```
…
